v 0.0 5.0 0.0
# v 2.0 10.0 5.0
v -2.0 10.0 5.0
v 3.0 6.0 3.0
v 6.0 8.0 5.0
v 7.0 12.0 4.0
v 8.0 3.0 1.0
v 12.0 5.0 -4.0
v 14.0 9.0 2.0
v 16.0 0.0 3.0

# dw about vts or vns

vt 0.0 0.0
vt 0.0 0.0
vt 0.0 0.0
vt 0.0 0.0
vt 0.0 0.0
vt 0.0 0.0
vt 0.0 0.0
vt 0.0 0.0
vt 0.0 0.0

vn 0.0 0.0 0.0
vn 0.0 0.0 0.0
vn 0.0 0.0 0.0
vn 0.0 0.0 0.0
vn 0.0 0.0 0.0
vn 0.0 0.0 0.0
vn 0.0 0.0 0.0
vn 0.0 0.0 0.0
vn 0.0 0.0 0.0

f 1/1/1 3/3/3 2/2/2
f 3/3/3 4/4/4 2/2/2
f 6/6/6 4/4/4 3/3/3
f 6/6/6 5/5/5 4/4/4
f 6/6/6 7/7/7 5/5/5
f 7/7/7 8/8/8 5/5/5
f 9/9/9 8/8/8 7/7/7